[
  {
    "id": 1,
    "name": "Nike",
    "price": 2000000,
    "stock": 10
  },
  {
    "id": 2,
    "name": "Asics",
    "price": 1000000,
    "stock": 7
  },
  {
    "id": 3,
    "name": "New Balance",
    "price": 1200000,
    "stock": 0
  },
  {
    "id": 4,
    "name": "Adidas",
    "price": 1500000,
    "stock": 5
  },
  {
    "id": 5,
    "name": "Kalenji",
    "price": 500000,
    "stock": 0
  },
  {
    "id": 6,
    "name": "Ardiles",
    "price": 200000,
    "stock": 10
  }
]