[
  {
    "id": 1,
    "title": "One Piece",
    "author": "Eiichiro Oda",
    "price": 38000,
    "publisher": "Weekly Shonen Jump"
  },
  {
    "id": 2,
    "title": "One Piece",
    "author": "Eiichiro Oda",
    "price": 38000,
    "publisher": "Weekly Shonen Jump"
  }
]